Final project option 2: EMS data analysis
…
traumanew <- filter(trauma, causeofinjury != "Not Applicable" & causeofinjury != "Not Available" & causeofinjury != "Not Known") %>% #remove rows with unknown/na causes of injury
  drop_na(causeofinjury, scene_arrive_dep) %>% # dropping na values 
  group_by(causeofinjury) %>% 
  reframe(count=n(), scene_arrive_dep) #added count column for understanding size of groups

traumasecond <- filter(traumanew, count > 10)  #removing causes of injury with cases < 10 

traumathird <- filter(traumasecond, scene_arrive_dep != 0)  #removing data points where scene_arrive_dep is 0 

traumafinal <- filter(traumathird, scene_arrive_dep < 4000)  #removing outlier points > 4000 seconds

traumafinal

# A tibble: 7,159 × 3
   causeofinjury             count scene_arrive_dep
   <chr>                     <int>            <dbl>
 1 Bicycle Accident (E826.0)   140              540
 2 Bicycle Accident (E826.0)   140             1440
 3 Bicycle Accident (E826.0)   140              900
 4 Bicycle Accident (E826.0)   140              540
 5 Bicycle Accident (E826.0)   140              720
 6 Bicycle Accident (E826.0)   140              240
 7 Bicycle Accident (E826.0)   140             1020
 8 Bicycle Accident (E826.0)   140              720
 9 Bicycle Accident (E826.0)   140             1500
10 Bicycle Accident (E826.0)   140              240
# ℹ 7,149 more rows
…
